{
  "results": [
    {
      "id": 550,
      "adult": false
    },
    {
      "id": 551,
      "adult": true
    },
    {
      "id": 552
    }
  ],
  "page": 1,
  "total_pages": 10,
  "total_results": 100
}
