{
  "results": [
    {
      "id": 93749,
      "adult": false
    },
    {
      "id": 312972,
      "adult": false
    },
    {
      "id": 114155,
      "adult": false
    }
  ],
  "page": 1,
  "total_pages": 31,
  "total_results": 3038
}
